…
    ## Calculating cluster 2

    ## Calculating cluster 3

    ## Calculating cluster 4

    ## Calculating cluster 5

``` r
braintumor.markers %>%
  group_by(cluster) %>%
  dplyr::filter(avg_log2FC > 1)
```

    ## # A tibble: 14,870 × 7
    ## # Groups:   cluster [6]
    ##        p_val avg_log2FC pct.1 pct.2 p_val_adj cluster gene  
    ##        <dbl>      <dbl> <dbl> <dbl>     <dbl> <fct>   <chr> 
    ##  1 8.56e-254       4.59 0.947 0.066 1.85e-249 0       NOVA1 
    ##  2 1.78e-228       4.76 0.838 0.029 3.85e-224 0       GRIA2 
    ##  3 8.87e-228       3.99 0.86  0.038 1.92e-223 0       CDH2  
    ##  4 2.87e-226       4.03 0.882 0.056 6.21e-222 0       SOX2  
    ##  5 4.22e-219       3.71 0.911 0.084 9.13e-215 0       PTPRZ1
    ##  6 3.06e-217       4.23 0.909 0.09  6.63e-213 0       EGFR  
    ##  7 8.37e-215       4.58 0.791 0.02  1.81e-210 0       CHL1  
    ##  8 2.29e-213       3.90 0.795 0.02  4.97e-209 0       NR2F1 
    ##  9 2.55e-209       4.26 0.795 0.034 5.52e-205 0       SOX9  
    ## 10 9.27e-208       4.25 0.742 0.01  2.01e-203 0       MEG3  
    ## # ℹ 14,860 more rows
…
